0 0.3170731707317073  0.04878048780487805
1 0.1  0.06666666666666667
2 0.1  0.0
3 0.5  0.5
4 0.6363636363636364  0.5454545454545454
5 1.0  0.36363636363636365
6 0.5  0.4166666666666667
7 0.5  0.5
8 0.7894736842105263  0.3157894736842105
9 0.6666666666666666  0.26666666666666666
10 0.2  0.2
11 0.12  0.12
12 0.15  0.15
13 0.17391304347826086  0.17391304347826086
14 0.0  0.0
15 0.2  0.2
16 0.1  0.05
17 0.045454545454545456  0.045454545454545456
18 0.0  0.0
19 0.0  0.0
20 0.18181818181818182  0.18181818181818182
21 0.17857142857142858  0.14285714285714285
22 0.06666666666666667  0.06666666666666667
23 1.0  0.9333333333333333
24 0.6451612903225806  0.5483870967741935
